{
  "page": 1,
  "page_count": 24958,
  "items_per_page": 20,
  "total": 499160,
  "results": [
    {
      "contents": "<p><b>Senior Merchandising Manager, Grocery</b> Tokyo, Japan<br><br><b>About the Role</b><br><br>We're seeking a strategic merchandising leader to own content and shopping experience strategy for Grocery in Japan. You'll combine data-driven insights with creative storytelling to drive consumer engagement and conversion across high-impact marketing campaigns.<br><br><b>What You'll Do</b><br><br><em>Merchandising &amp; Content Strategy</em><br><br>- Lead local merchandising and content strategy for Grocery and Retail<br>- Craft compelling consumer narratives using performance data, seasonality insights, and market trends<br>- Optimize the end-to-end shopping journey to drive engagement and conversion<br><br><em>Campaign Ownership &amp; Execution</em><br><br>- Own merchandising execution for high-impact marketing campaigns from planning through delivery<br>- Manage campaign prioritization, planning calendars, and timelines in partnership with Sales and Marketing<br>- Drive high-quality execution while contributing to longer-term strategic initiatives<br><br><em>Performance &amp; Insights</em><br><br>- Define success metrics and continuously track campaign and category performance<br>- Generate actionable insights to improve consumer engagement, conversion, and shopping experience<br>- Use data to identify opportunities to innovate and scale best practices<br><br><em>Cross-Functional Leadership</em><br><br>- Serve as key leader aligning Operations, Sales, Strategy &amp; Planning, Marketing, Legal, Product, and Global Merchandising teams<br>- Influence and coordinate senior stakeholders across functions to ensure strategic alignment<br>- Drive execution excellence through clear communication and collaborative leadership<br><br><b>Basic Qualifications</b><br><br>- 9+ years of experience in e-commerce, retail, marketplace, or consumer-facing businesses<br>- Demonstrated ownership of merchandising, growth, or content-related initiatives<br>- Strong analytical capabilities: SQL proficiency and experience using data to drive decisions and prioritization<br>- Fluent in English and Japanese with ability to communicate effectively with senior, cross-functional stakeholders<br><br><b>Preferred Qualifications</b><br><br>- Experience leading merchandising strategy, content optimization, or campaign execution in fast-paced, consumer environments<br>- Proven ability to translate insights into clear strategies, execution plans, and business recommendations<br>- Strong stakeholder leadership with track record of influencing across functions without direct authority<br><br>Uber's mission is to reimagine the way the world moves for the better. Here, bold ideas create real-world impact, challenges drive growth, and speed fuelds progress. What moves us, moves the world - let's move it forward, together.<br><br>Offices continue to be central to collaboration and Uber's cultural identity. Unless formally approved to work fully remotely, Uber expects employees to spend at least half of their work time in their assigned office. For certain roles, such as those based at green-light hubs, employees are expected to be in-office for 100% of their time. Please speak with your recruiter to better understand in-office expectations for this role.<br><br>*Accommodations may be available based on religious and/or medical conditions, or as required by applicable law. To request an accommodation, please reach out to <a href=\"mailto:accommodations@uber.com\">accommodations@uber.com</a>.</p>",
      "name": "Sr Category Manager, Japan Merchandising, Retail",
      "type": "external",
      "publication_date": "2026-06-11T00:12:35Z",
      "short_name": "sr-category-manager-japan-merchandising-retail",
      "model_type": "jobs",
      "id": 21643383,
      "locations": [
        {
          "name": "Tokyo, Japan"
        }
      ],
      "categories": [
        {
          "name": "Business Operations"
        }
      ],
      "levels": [
        {
          "name": "Senior Level",
          "short_name": "senior"
        }
      ],
      "tags": [],
      "refs": {
        "landing_page": "https://www.themuse.com/jobs/uber/sr-category-manager-japan-merchandising-retail"
      },
      "company": {
        "id": 61,
        "short_name": "uber",
        "name": "Uber"
      }
    },
    {
      "contents": "<p><strong>$7,500 Sign On Bonus for Full Time</strong></p>\n\n<p><strong>All shifts available</strong></p>\n\n<p>Want to make a difference in someone\u2019s life every day? As a nurse with The Laurels of Kent, you will work as part of a team providing skilled nursing and short-term rehabilitation care to our valued guests. If you have patience, compassion and a desire to care for guests in a gentle and empathetic way, you will love this role.</p>\n\n<p>The Laurels of Kent offers one of the leading employee benefit packages in the industry. This includes:</p>\n\n<ul><li><p>Health insurance- Medical, Dental and Vision</p></li><li><p>401K with matching funds</p></li><li><p>Paid time off</p></li><li><p>Paid holidays</p></li></ul>\n\n<p>When you work with The Laurels of Kent, you will join an experienced, hard-working team that values communication and collaboration.</p>\n\n<p>Why just work when you can help shape a legacy?</p>\n\n<p><strong>Responsibilities</strong></p>\n\n<p>The Licensed Practical Nurse (LPN) plans, coordinates, provides and manages nursing care services and health education to nursing home guests.</p>\n\n<ul><li><p>Supervise the care/services provided by Certified Nursing Assistants (CNA)/State-Tested Nursing Assistants (STNA) and other team members who care for guests.</p></li><li><p>Provide safe and accurate medication-related interventions to guests.</p></li><li><p>Assess the health of guests and notify the physician of changes in status. Promptly implement new orders.</p></li><li><p>Select and institute appropriate nursing interventions to stabilize a guest\u2019s condition and/or prevent complications.</p></li><li><p>Contribute to the guest\u2019s assessment (MDS/CAA\u2019s) and the development of a plan of care.</p></li></ul>\n\n<p><strong>Qualifications</strong></p>\n\n<ul><li><p>1-3 years of experience in a long-term care setting preferred</p></li><li><p>Current Licensed Practical Nurse (LPN) licensure in the state</p></li><li><p>CPR certification</p></li><li><p>or acceptable exemption required</p></li></ul>\n\n<p><strong>About Laurel Health Care Company</strong></p>\n\n<p>Laurel Health Care Company (The Laurels) is a national provider of skilled nursing, subacute, rehabilitative and assisted living services dedicated to achieving the highest standards of care.</p>\n\n<p>At The Laurels, caring is more than providing excellent medical and guest services. It's also being a companion, and treating each guest with the utmost dignity, respect and compassion. It's what we call \"The Laurel Way of Caring\", and it comes from within each one of us.</p>\n\n<p>The Laurels was named a Great Place to Work for 2020 based on approximately 3,500 employee surveys that evaluated more than 60 elements of employee experience on the job, including employee pride in community impact, belief that their work makes a difference, and feeling their work has special meaning.</p>\n\n<p>IND123</p>\n\n<p>By applying, you consent to your information being transmitted to the Employer by SonicJobs.<br>See Ciena Healthcare Management Privacy Policy at https://apploi.com/privacy_policy/ and SonicJobs Privacy Policy at https://www.sonicjobs.com/us/privacy-policy and Terms of Use at https://www.sonicjobs.com/us/terms-conditions</p>",
      "name": "Licensed Practical Nurse (LPN) - Sign On Bonus",
      "type": "external",
      "publication_date": "2026-03-17T13:37:16Z",
      "short_name": "licensed-practical-nurse-lpn-sign-on-bonus-3baf6a",
      "model_type": "jobs",
      "id": 21438954,
      "locations": [
        {
          "name": "Caledonia, MI"
        }
      ],
      "categories": [],
      "levels": [
        {
          "name": "Mid Level",
          "short_name": "mid"
        }
      ],
      "tags": [],
      "refs": {
        "landing_page": "https://www.themuse.com/jobs/thelaurelsofkent/licensed-practical-nurse-lpn-sign-on-bonus-3baf6a"
      },
      "company": {
        "id": 15000989,
        "short_name": "thelaurelsofkent",
        "name": "The Laurels of Kent"
      }
    },
    {
      "contents": "<p><b>Job Description:</b><br><br>At Bank of America, we are guided by a common purpose to help make financial lives better through the power of every connection. We do this by driving Responsible Growth and delivering for our clients, teammates, communities and shareholders every day.<br><br>Being a Great Place to Work is core to how we drive Responsible Growth. This includes our commitment to being an inclusive workplace, attracting and developing exceptional talent, supporting our teammates' physical, emotional, and financial wellness, recognizing and rewarding performance, and how we make an impact in the communities we serve.<br><br>Bank of America is committed to an in-office culture with specific requirements for office-based attendance and which allows for an appropriate level of flexibility for our teammates and businesses based on role-specific considerations.<br><br>At Bank of America, you can build a successful career with opportunities to learn, grow, and make an impact. Join us!<br><br><b>Job Description:</b><br>This job is responsible for providing comprehensive advice and customized solutions to clients to help them achieve their financial goals. Key responsibilities include triaging client leads, making referrals to business partners based on client needs and asset thresholds, meeting with clients to review financial and investment goals, building a financial plan, and recommending brokerage products. Job expectations include applying and expanding knowledge by completing required licenses and trainings. This position may be responsible for the provision of residential mortgage loans, and as such, is subject to SAFE Act registration requirements. Pursuant to the SAFE Act requirements, all employees engaged in residential mortgage loan originations must register with the federal registry system and remain in good standing. Since this position requires SAFE Act registration, employees are required to register and to submit to the required SAFE Act background check. Failure to obtain and/or maintain SAFE Act registration may result in disciplinary action up to and including termination.<br><br><b>Responsibilities:</b><br><br><ul><li>Works with clients to plan their short and long-term financial goals by building a financial plan with brokerage products, including stocks, bonds, mutual funds, annuities, and banking and money managed solutions</li><li>Recommends banking and investments strategies that align with client financial goals and needs</li><li>Triages client requests and makes referrals to appropriate internal service providers based on client needs and asset thresholds</li><li>Mitigates and controls risk as part of daily activities</li><li>Identifies and engages potential new clients through referrals or financial center clientele</li><li>Provides coaching and feedback to referral partners based on knowledge of client needs and potential product services recommended</li></ul><br><b>Required Qualifications:</b><br><br><ul><li>Currently holds Series 7 and 66 (63 and 65 in lieu of 66) licenses; if you do not currently hold the 66 but have either a 63 or 65, an offer can be extended with the condition that a passing score is received for the missing series within 60 days</li><li>Minimum of one year of experience in the investments industry, including investment training and in-depth knowledge of investment products and services</li><li>Minimum of one year of experience working in the financial service industry and/or a sales environment where goals were met or exceeded</li><li>Sets and accomplishes goals, achieving whatever one sets their mind to</li><li>Builds and nurtures strong relationships</li><li>Collaborates effectively with others to get things done</li><li>Communicates effectively and confidently and is comfortable engaging all clients</li><li>Manages goals, navigates complexity, prioritizes tasks and executes in a fast-paced environment</li><li>Likes to learn, adapts to new information and seeks the right solutions for clients</li><li>Efficiently manages time and capacity</li><li>Thorough and thoughtful in incorporating relevant regulatory due diligence into daily activities and long-term strategies for clients</li></ul><br><b>Desired Qualifications:</b><br><br><ul><li>Strong computer skills with an ability to multitask in a demanding environment</li><li>Minimum of three years of experience working in the financial service industry and/or a sales environment where goals were met or exceeded</li><li>Achieved additional professional designations such as Certified Financial Planner (CFP) and/or Chartered Retirement Planning Counselor (CRPC)</li><li>Obtained insurance licenses</li></ul><br><b>Skills:</b><br><br><ul><li>Account Management</li><li>Advisory</li><li>Client Experience Branding</li><li>Customer and Client Focus</li><li>Oral Communications</li><li>Active Listening</li><li>Attention to Detail</li><li>Client Solutions Advisory</li><li>Issue Management</li><li>Pipeline Management</li><li>Causation Analysis</li><li>Client Management</li><li>Policies, Procedures, and Guidelines</li><li>Risk Management</li><li>Written Communications</li></ul><br><b>Minimum Education Requirement:</b> High School Diploma / GED / Secondary School or equivalent<br><br><b>Shift:</b><br>1st shift (United States of America)<br><br><b>Hours Per Week: </b><br>40</p>",
      "name": "Financial Solutions Advisor - Orchard Lake Road - Greater Michigan Market",
      "type": "external",
      "publication_date": "2026-04-27T19:28:54Z",
      "short_name": "financial-solutions-advisor-orchard-lake-road-greater-michigan-market",
      "model_type": "jobs",
      "id": 21300564,
      "locations": [
        {
          "name": "Bloomfield Hills, MI"
        }
      ],
      "categories": [
        {
          "name": "Account Management"
        }
      ],
      "levels": [
        {
          "name": "Mid Level",
          "short_name": "mid"
        }
      ],
      "tags": [
        {
          "name": "Fortune 1000",
          "short_name": "fortune-1000-companies"
        }
      ],
      "refs": {
        "landing_page": "https://www.themuse.com/jobs/bankofamerica/financial-solutions-advisor-orchard-lake-road-greater-michigan-market"
      },
      "company": {
        "id": 12145,
        "short_name": "bankofamerica",
        "name": "Bank of America"
      }
    }
  ]
}